Hello - Final Project
…
Show the code

library(dplyr)

# Calculate average yield for each county
county_avg_yield <- data %>%
  group_by(County) %>%
  summarize(Avg_Corn_Yield = mean(`Corn Yield (ton/acre)`, na.rm = TRUE),
            Avg_Hay_Yield = mean(`Hay Yield (ton/acre)`, na.rm = TRUE))

# View the resulting data frame
print(county_avg_yield)

# A tibble: 58 × 3
   County      Avg_Corn_Yield Avg_Hay_Yield
   <chr>                <dbl>         <dbl>
 1 Albany                9.96          1.95
 2 Allegany              8.55          1.66
 3 Broome                9.28          1.75
 4 Cattaraugus           9.39          1.77
 5 Cayuga               12.2           2.33
 6 Chautauqua           10.9           2.15
 7 Chemung              11.9           2.25
 8 Chenango             11.0           2.21
 9 Clinton               7.64          1.35
10 Columbia             10.7           2.12
# ℹ 48 more rows
…
